{
  "self": "<string>",
  "nextPage": "<string>",
  "maxResults": 51,
  "startAt": 37,
  "total": 29,
  "isLast": true,
  "values": [
    {
      "self": "<string>",
      "id": "<string>",
      "key": "<string>",
      "name": "<string>",
      "projectTypeKey": "software",
      "simplified": true,
      "avatarUrls": {
        "16x16": "<string>",
        "24x24": "<string>",
        "32x32": "<string>",
        "48x48": "<string>"
      },
      "projectCategory": {
        "self": "<string>",
        "id": "<string>",
        "description": "<string>",
        "name": "<string>"
      }
    }
  ]
}