{
  "self": "https://your-domain.atlassian.net/rest/api/3/group/member?groupname=jira-administrators&includeInactiveUsers=false&startAt=2&maxResults=2",
  "nextPage": "https://your-domain.atlassian.net/rest/api/3/group/member?groupname=jira-administrators&includeInactiveUsers=false&startAt=4&maxResults=2",
  "maxResults": 2,
  "startAt": 3,
  "total": 5,
  "isLast": false,
  "values": [
    {
      "self": "https://your-domain.atlassian.net/rest/api/3/user?accountId=5b10a2844c20165700ede21g",
      "name": "",
      "key": "",
      "accountId": "5b10a2844c20165700ede21g",
      "emailAddress": "mia@example.com",
      "avatarUrls": {},
      "displayName": "Mia",
      "active": true,
      "timeZone": "Australia/Sydney",
      "accountType": "atlassian"
    },
    {
      "self": "https://your-domain.atlassian.net/rest/api/3/user?accountId=5b10a0effa615349cb016cd8",
      "name": "",
      "key": "",
      "accountId": "5b10a0effa615349cb016cd8",
      "emailAddress": "will@example.com",
      "avatarUrls": {},
      "displayName": "Will",
      "active": false,
      "timeZone": "Australia/Sydney",
      "accountType": "atlassian"
    }
  ]
}